TestBuild_1/8OhmLoaded_1k_2-3k.csv

Record Length,10000,Points,0.0,-36.79999924,
Sample Interval,1.2500000,Hz,1.2500000,-38.40000153,
Trigger Point,0.0,Samples,2.5000000,-40.00000000,
,,,3.75000000,-57.600002289,
,,,5.00000000,-75.200004578,
,,,6.25000000,-74.400001526,
Source,MATH,,7.500000000,-74.400001526,
Vertical Units,dB,,8.750000000,-75.200004578,
Vertical Scale,20.0000003,,10.0000000,-76.000000000,
Vertical Offset,0,,11.2500000,-77.599998474,
Horizontal Units,Hz,,12.5000000,-78.400001526,
Horizontal Scale,1.2500001E3,,13.7500000,-85.599998474,
Pt Fmt,Y,,15.0000000,-92.000000000,
Yzero,3.00000000,,16.2500000,-85.599998474,
,,,17.5000000,-78.400001526,
,,,18.7500000,-76.000000000,
Note,MSO4054 - 10:04:47 PM   11/14/2016,,20.0000000,-72.800003052,
,,,21.25000000,-68.800003052,
,,,22.50000000,-65.599998474,
,,,23.75000000,-65.599998474,
,,,25.00000000,-65.599998474,
,,,26.25000000,-68.800003052,
,,,27.50000000,-72.000000000,
,,,28.75000000,-76.000000000,
,,,30.00000000,-79.200004578,
,,,31.25000000,-76.800003052,
,,,32.50000000,-74.400001526,
,,,33.75000000,-70.400001526,
,,,35.00000000,-66.400001526,
,,,36.25000000,-68.000000000,
,,,37.50000000,-69.599998474,
,,,38.75000000,-74.400001526,
,,,40.00000000,-79.200004578,
,,,41.25000000,-74.400001526,
,,,42.50000000,-68.800003052,
,,,43.75000000,-72.000000000,
,,,45.00000000,-75.200004578,
,,,46.25000000,-78.400001526,
,,,47.50000000,-81.599998474,
,,,48.75000000,-76.000000000,
,,,50.00000000,-70.400001526,
,,,51.25000000,-68.800003052,
,,,52.50000000,-67.200004578,
,,,53.75000000,-68.800003052,
,,,55.000000000,-70.400001526,
,,,56.250000000,-80.000000000,
,,,57.500000000,-89.599998474,
,,,58.750000000,-79.200004578,
,,,60.000000000,-69.599998474,
,,,61.250000000,-73.599998474,
,,,62.500000000,-76.800003052,
,,,63.750000000,-72.800003052,
,,,65.000000000,-68.800003052,
,,,66.250000000,-72.000000000,
,,,67.500000000,-75.200004578,
,,,68.750000000,-73.599998474,
,,,70.000000000,-72.000000000,
,,,71.250000000,-72.000000000,
,,,72.500000000,-72.800003052,
,,,73.750000000,-78.400001526,
,,,75.000000000,-84.000000000,
,,,76.250000000,-77.599998474,
,,,77.500000000,-72.000000000,
,,,78.750000000,-72.000000000,
,,,80.000000000,-72.000000000,
,,,81.250000000,-76.000000000,
,,,82.500000000,-79.200004578,
,,,83.750000000,-80.800003052,
,,,85.000000000,-81.599998474,
,,,86.250000000,-78.400001526,
,,,87.500000000,-75.200004578,
,,,88.750000000,-81.599998474,
,,,90.000000000,-88.000000000,
,,,91.250000000,-83.200004578,
,,,92.500000000,-79.200004578,
,,,93.750000000,-81.599998474,
,,,95.000000000,-84.800003052,
,,,96.250000000,-79.200004578,
,,,97.500000000,-73.599998474,
,,,98.750000000,-70.400001526,
,,,100.0000000,-68.000000000,
,,,101.2500000,-68.800003052,
,,,102.5000000,-69.599998474,
,,,103.7500000,-76.800003052,
,,,105.0000000,-83.200004578,
,,,106.2500000,-78.400001526,
,,,107.5000000,-73.599998474,
,,,108.7500000,-70.400001526,
,,,110.0000000,-68.000000000,
,,,111.2500000,-68.800003052,
,,,112.5000000,-70.400001526,
,,,113.7500000,-73.599998474,
,,,115.0000000,-76.800003052,
,,,116.2500000,-73.599998474,
,,,117.5000000,-70.400001526,
,,,118.7500000,-72.800003052,
,,,120.0000000,-75.200004578,
,,,121.2500000,-79.200004578,
,,,122.5000000,-83.200004578,
,,,123.7500000,-78.400001526,
,,,125.0000000,-73.599998474,
,,,126.2500000,-72.800003052,
,,,127.5000000,-71.200004578,
,,,128.7500000,-71.200004578,
,,,130.0000000,-71.200004578,
,,,131.2500000,-70.400001526,
,,,132.5000000,-68.800003052,
,,,133.7500000,-67.200004578,
,,,135.0000000,-66.400001526,
,,,136.2500000,-66.400001526,
,,,137.5000000,-67.200004578,
,,,138.7500000,-66.400001526,
,,,140.0000000,-66.400001526,
,,,141.2500000,-66.400001526,
,,,142.5000000,-67.200004578,
,,,143.7500000,-68.000000000,
,,,145.0000000,-68.800003052,
,,,146.2500000,-70.400001526,
,,,147.5000000,-72.800003052,
,,,148.75000000,-69.599998474,
,,,150.00000000,-66.400001526,
,,,151.25000000,-68.000000000,
,,,152.50000000,-70.400001526,
,,,153.75000000,-72.800003052,
,,,155.00000000,-74.400001526,
,,,156.25000000,-70.400001526,
,,,157.50000000,-66.400001526,
,,,158.75000000,-66.400001526,
,,,160.00000000,-65.599998474,
,,,161.25000000,-66.400001526,
,,,162.50000000,-68.000000000,
,,,163.75000000,-76.000000000,
,,,165.00000000,-84.000000000,
,,,166.25000000,-80.800003052,
,,,167.50000000,-76.800003052,
,,,168.75000000,-77.599998474,
,,,170.00000000,-79.200004578,
,,,171.25000000,-83.200004578,
,,,172.50000000,-87.200004578,
,,,173.75000000,-88.000000000,
,,,175.00000000,-88.800003052,
,,,176.25000000,-84.000000000,
,,,177.50000000,-80.000000000,
,,,178.75000000,-76.000000000,
,,,180.00000000,-72.000000000,
,,,181.25000000,-73.599998474,
,,,182.50000000,-74.400001526,
,,,183.75000000,-72.800003052,
,,,185.00000000,-72.000000000,
,,,186.25000000,-70.400001526,
,,,187.50000000,-68.800003052,
,,,188.75000000,-72.000000000,
,,,190.00000000,-75.200004578,
,,,191.25000000,-75.200004578,
,,,192.50000000,-75.200004578,
,,,193.75000000,-73.599998474,
,,,195.00000000,-71.200004578,
,,,196.25000000,-72.800003052,
,,,197.50000000,-73.599998474,
,,,198.75000000,-72.000000000,
,,,200.00000000,-69.599998474,
,,,201.25000000,-68.000000000,
,,,202.50000000,-67.200004578,
,,,203.75000000,-68.800003052,
,,,205.00000000,-69.599998474,
,,,206.25000000,-76.800003052,
,,,207.50000000,-83.200004578,
,,,208.75000000,-81.599998474,
,,,210.00000000,-80.000000000,
,,,211.25000000,-74.400001526,
,,,212.50000000,-68.800003052,
,,,213.75000000,-68.800003052,
,,,215.00000000,-68.000000000,
,,,216.25000000,-72.800003052,
,,,217.50000000,-77.599998474,
,,,218.75000000,-80.800003052,
,,,220.00000000,-83.200004578,
,,,221.25000000,-80.000000000,
,,,222.50000000,-76.800003052,
,,,223.75000000,-73.599998474,
,,,225.00000000,-71.200004578,
,,,226.25000000,-78.400001526,
,,,227.50000000,-85.599998474,
,,,228.75000000,-76.000000000,
,,,230.00000000,-66.400001526,
,,,231.25000000,-65.599998474,
,,,232.50000000,-64.800003052,
,,,233.75000000,-78.400001526,
,,,235.00000000,-91.200004578,
,,,236.25000000,-81.599998474,
,,,237.50000000,-72.800003052,
,,,238.75000000,-76.000000000,
,,,240.00000000,-78.400001526,
,,,241.25000000,-75.200004578,
,,,242.50000000,-72.000000000,
,,,243.75000000,-70.400001526,
,,,245.00000000,-69.599998474,
,,,246.25000000,-68.000000000,
,,,247.50000000,-66.400001526,
,,,248.75000000,-66.400001526,
,,,250.00000000,-66.400001526,
,,,251.25000000,-68.000000000,
,,,252.50000000,-69.599998474,
,,,253.75000000,-71.200004578,
,,,255.00000000,-72.800003052,
,,,256.25000000,-76.000000000,
,,,257.50000000,-78.400001526,
,,,258.75000000,-76.000000000,
,,,260.00000000,-73.599998474,
,,,261.25000000,-72.000000000,
,,,262.50000000,-69.599998474,
,,,263.75000000,-74.400001526,
,,,265.00000000,-80.000000000,
,,,266.25000000,-75.200004578,
,,,267.50000000,-70.400001526,
,,,268.75000000,-70.400001526,
,,,270.00000000,-70.400001526,
,,,271.25000000,-74.400001526,
,,,272.50000000,-78.400001526,
,,,273.75000000,-74.400001526,
,,,275.00000000,-70.400001526,
,,,276.25000000,-69.599998474,
,,,277.50000000,-68.000000000,
,,,278.75000000,-70.400001526,
,,,280.00000000,-72.000000000,
,,,281.25000000,-89.599998474,
,,,282.50000000,-107.2000046,
,,,283.75000000,-92.800003052,
,,,285.00000000,-77.599998474,
,,,286.25000000,-76.800003052,
,,,287.50000000,-76.000000000,
,,,288.75000000,-76.000000000,
,,,290.00000000,-76.000000000,
,,,291.25000000,-73.599998474,
,,,292.50000000,-70.400001526,
,,,293.75000000,-69.599998474,
,,,295.00000000,-68.800003052,
,,,296.25000000,-68.000000000,
,,,297.50000000,-67.200004578,
,,,298.75000000,-58.400001526,
,,,300.00000000,-48.79999924,
,,,301.25000000,-48.79999924,
,,,302.50000000,-48.00000000,
,,,303.75000000,-54.40000153,
,,,305.00000000,-60.799999237,
,,,306.25000000,-72.800003052,
,,,307.50000000,-85.599998474,
,,,308.75000000,-78.400001526,
,,,310.00000000,-72.000000000,
,,,311.25000000,-73.599998474,
,,,312.50000000,-76.000000000,
,,,313.75000000,-74.400001526,
,,,315.00000000,-72.000000000,
,,,316.25000000,-72.800003052,
,,,317.50000000,-73.599998474,
,,,318.75000000,-77.599998474,
,,,320.00000000,-82.400001526,
,,,321.25000000,-78.400001526,
,,,322.50000000,-74.400001526,
,,,323.75000000,-72.000000000,
,,,325.00000000,-70.400001526,
,,,326.25000000,-69.599998474,
,,,327.50000000,-69.599998474,
,,,328.75000000,-72.800003052,
,,,330.00000000,-75.200004578,
,,,331.25000000,-77.599998474,
,,,332.50000000,-79.200004578,
,,,333.75000000,-76.000000000,
,,,335.00000000,-72.800003052,
,,,336.25000000,-76.000000000,
,,,337.50000000,-79.200004578,
,,,338.75000000,-80.000000000,
,,,340.00000000,-81.599998474,
,,,341.25000000,-82.400001526,
,,,342.50000000,-84.000000000,
,,,343.75000000,-78.400001526,
,,,345.00000000,-73.599998474,
,,,346.25000000,-72.800003052,
,,,347.50000000,-72.000000000,
,,,348.75000000,-72.000000000,
,,,350.00000000,-71.200004578,
,,,351.25000000,-72.800003052,
,,,352.50000000,-74.400001526,
,,,353.75000000,-78.400001526,
,,,355.00000000,-81.599998474,
,,,356.25000000,-80.000000000,
,,,357.50000000,-78.400001526,
,,,358.75000000,-77.599998474,
,,,360.00000000,-76.800003052,
,,,361.25000000,-76.800003052,
,,,362.50000000,-76.800003052,
,,,363.75000000,-74.400001526,
,,,365.00000000,-72.800003052,
,,,366.25000000,-68.800003052,
,,,367.50000000,-65.599998474,
,,,368.75000000,-68.000000000,
,,,370.00000000,-69.599998474,
,,,371.25000000,-73.599998474,
,,,372.50000000,-76.800003052,
,,,373.75000000,-72.800003052,
,,,375.00000000,-69.599998474,
,,,376.25000000,-68.000000000,
,,,377.50000000,-67.200004578,
,,,378.75000000,-68.800003052,
,,,380.00000000,-70.400001526,
,,,381.25000000,-71.200004578,
,,,382.50000000,-72.000000000,
,,,383.75000000,-72.000000000,
,,,385.00000000,-71.200004578,
,,,386.25000000,-72.800003052,
,,,387.50000000,-74.400001526,
,,,388.75000000,-74.400001526,
,,,390.00000000,-73.599998474,
,,,391.25000000,-80.000000000,
,,,392.50000000,-85.599998474,
,,,393.75000000,-80.800003052,
,,,395.00000000,-76.000000000,
,,,396.25000000,-85.599998474,
,,,397.50000000,-95.200004578,
,,,398.75000000,-87.200004578,
,,,400.00000000,-78.400001526,
,,,401.25000000,-76.000000000,
,,,402.50000000,-73.599998474,
,,,403.750000000,-72.000000000,
,,,405.000000000,-71.200004578,
,,,406.250000000,-72.000000000,
,,,407.500000000,-72.800003052,
,,,408.750000000,-72.800003052,
,,,410.000000000,-73.599998474,
,,,411.250000000,-73.599998474,
,,,412.500000000,-74.400001526,
,,,413.750000000,-73.599998474,
,,,415.000000000,-72.000000000,
,,,416.250000000,-70.400001526,
,,,417.500000000,-68.000000000,
,,,418.750000000,-70.400001526,
,,,420.000000000,-72.800003052,
,,,421.250000000,-73.599998474,
,,,422.500000000,-75.200004578,
,,,423.750000000,-73.599998474,
,,,425.000000000,-72.800003052,
,,,426.250000000,-71.200004578,
,,,427.500000000,-70.400001526,
,,,428.750000000,-72.800003052,
,,,430.000000000,-75.200004578,
,,,431.250000000,-76.000000000,
,,,432.500000000,-76.800003052,
,,,433.750000000,-76.800003052,
,,,435.000000000,-76.800003052,
,,,436.250000000,-73.599998474,
,,,437.500000000,-69.599998474,
,,,438.750000000,-71.200004578,
,,,440.000000000,-72.000000000,
,,,441.250000000,-70.400001526,
,,,442.500000000,-68.800003052,
,,,443.750000000,-70.400001526,
,,,445.000000000,-71.200004578,
,,,446.250000000,-83.200004578,
,,,447.500000000,-94.400001526,
,,,448.750000000,-83.200004578,
,,,450.000000000,-72.800003052,
,,,451.250000000,-71.200004578,
,,,452.500000000,-69.599998474,
,,,453.750000000,-73.599998474,
,,,455.000000000,-77.599998474,
,,,456.250000000,-76.000000000,
,,,457.500000000,-75.200004578,
,,,458.750000000,-74.400001526,
,,,460.000000000,-73.599998474,
,,,461.250000000,-71.200004578,
,,,462.500000000,-68.000000000,
,,,463.750000000,-72.000000000,
,,,465.000000000,-76.000000000,
,,,466.250000000,-75.200004578,
,,,467.500000000,-74.400001526,
,,,468.750000000,-74.400001526,
,,,470.000000000,-75.200004578,
,,,471.250000000,-74.400001526,
,,,472.500000000,-74.400001526,
,,,473.750000000,-84.000000000,
,,,475.000000000,-93.599998474,
,,,476.250000000,-83.200004578,
,,,477.500000000,-72.800003052,
,,,478.750000000,-70.400001526,
,,,480.000000000,-68.000000000,
,,,481.250000000,-69.599998474,
,,,482.500000000,-72.000000000,
,,,483.750000000,-73.599998474,
,,,485.000000000,-76.000000000,
,,,486.250000000,-79.200004578,
,,,487.500000000,-81.599998474,
,,,488.750000000,-84.000000000,
,,,490.000000000,-85.599998474,
,,,491.250000000,-80.800003052,
,,,492.500000000,-76.800003052,
,,,493.750000000,-75.200004578,
,,,495.000000000,-74.400001526,
,,,496.250000000,-76.000000000,
,,,497.500000000,-76.800003052,
,,,498.750000000,-75.200004578,
,,,500.000000000,-73.599998474,
,,,501.250000000,-71.200004578,
,,,502.500000000,-69.599998474,
,,,503.750000000,-68.800003052,
,,,505.000000000,-68.800003052,
,,,506.250000000,-72.000000000,
,,,507.500000000,-75.200004578,
,,,508.750000000,-77.599998474,
,,,510.000000000,-80.000000000,
,,,511.250000000,-75.200004578,
,,,512.500000000,-70.400001526,
,,,513.750000000,-70.400001526,
,,,515.000000000,-70.400001526,
,,,516.250000000,-73.599998474,
,,,517.500000000,-76.800003052,
,,,518.750000000,-73.599998474,
,,,520.000000000,-69.599998474,
,,,521.250000000,-69.599998474,
,,,522.500000000,-69.599998474,
,,,523.750000000,-71.200004578,
,,,525.000000000,-72.800003052,
,,,526.250000000,-76.000000000,
,,,527.500000000,-78.400001526,
,,,528.750000000,-72.800003052,
,,,530.000000000,-67.200004578,
,,,531.250000000,-67.200004578,
,,,532.500000000,-66.400001526,
,,,533.750000000,-71.200004578,
,,,535.000000000,-76.000000000,
,,,536.250000000,-74.400001526,
,,,537.500000000,-72.800003052,
,,,538.750000000,-76.800003052,
,,,540.000000000,-80.800003052,
,,,541.250000000,-79.200004578,
,,,542.500000000,-76.800003052,
,,,543.750000000,-76.000000000,
,,,545.000000000,-75.200004578,
,,,546.250000000,-72.000000000,
,,,547.500000000,-68.800003052,
,,,548.750000000,-69.599998474,
,,,550.000000000,-71.200004578,
,,,551.250000000,-75.200004578,
,,,552.500000000,-79.200004578,
,,,553.750000000,-76.000000000,
,,,555.000000000,-72.800003052,
,,,556.250000000,-78.400001526,
,,,557.500000000,-84.000000000,
,,,558.750000000,-82.400001526,
,,,560.000000000,-80.000000000,
,,,561.250000000,-77.599998474,
,,,562.500000000,-75.200004578,
,,,563.750000000,-76.000000000,
,,,565.000000000,-77.599998474,
,,,566.250000000,-72.800003052,
,,,567.500000000,-68.800003052,
,,,568.750000000,-68.800003052,
,,,570.000000000,-69.599998474,
,,,571.250000000,-72.000000000,
,,,572.500000000,-75.200004578,
,,,573.750000000,-80.800003052,
,,,575.000000000,-87.200004578,
,,,576.250000000,-81.599998474,
,,,577.500000000,-76.000000000,
,,,578.750000000,-72.000000000,
,,,580.000000000,-68.800003052,
,,,581.250000000,-70.400001526,
,,,582.500000000,-72.000000000,
,,,583.750000000,-75.200004578,
,,,585.000000000,-78.400001526,
,,,586.250000000,-77.599998474,
,,,587.500000000,-76.800003052,
,,,588.750000000,-73.599998474,
,,,590.000000000,-71.200004578,
,,,591.250000000,-70.400001526,
,,,592.500000000,-69.599998474,
,,,593.750000000,-69.599998474,
,,,595.000000000,-70.400001526,
,,,596.250000000,-71.200004578,
,,,597.500000000,-72.000000000,
,,,598.750000000,-74.400001526,
,,,600.000000000,-76.800003052,
,,,601.250000000,-71.200004578,
,,,602.500000000,-65.599998474,
,,,603.750000000,-66.400001526,
,,,605.000000000,-67.200004578,
,,,606.250000000,-71.200004578,
,,,607.500000000,-75.200004578,
,,,608.750000000,-79.200004578,
,,,610.000000000,-83.200004578,
,,,611.250000000,-78.400001526,
,,,612.500000000,-73.599998474,
,,,613.750000000,-74.400001526,
,,,615.000000000,-74.400001526,
,,,616.250000000,-74.400001526,
,,,617.500000000,-74.400001526,
,,,618.750000000,-75.200004578,
,,,620.000000000,-76.800003052,
,,,621.250000000,-80.000000000,
,,,622.500000000,-84.000000000,
,,,623.750000000,-82.400001526,
,,,625.000000000,-80.000000000,
,,,626.250000000,-84.000000000,
,,,627.500000000,-87.200004578,
,,,628.750000000,-76.800003052,
,,,630.000000000,-65.599998474,
,,,631.250000000,-65.599998474,
,,,632.500000000,-64.800003052,
,,,633.750000000,-66.400001526,
,,,635.000000000,-68.800003052,
,,,636.250000000,-68.800003052,
,,,637.500000000,-68.800003052,
,,,638.750000000,-70.400001526,
,,,640.000000000,-72.800003052,
,,,641.250000000,-76.000000000,
,,,642.500000000,-79.200004578,
,,,643.750000000,-76.800003052,
,,,645.000000000,-75.200004578,
,,,646.250000000,-74.400001526,
,,,647.500000000,-73.599998474,
,,,648.750000000,-70.400001526,
,,,650.000000000,-68.000000000,
,,,651.250000000,-67.200004578,
,,,652.500000000,-66.400001526,
,,,653.750000000,-67.200004578,
,,,655.000000000,-67.200004578,
,,,656.250000000,-68.800003052,
,,,657.500000000,-70.400001526,
,,,658.750000000,-78.400001526,
,,,660.000000000,-85.599998474,
,,,661.250000000,-82.400001526,
,,,662.500000000,-79.200004578,
,,,663.750000000,-75.200004578,
,,,665.000000000,-71.200004578,
,,,666.250000000,-68.800003052,
,,,667.500000000,-66.400001526,
,,,668.750000000,-64.800003052,
,,,670.000000000,-63.200000763,
,,,671.250000000,-64.000000000,
,,,672.500000000,-64.000000000,
,,,673.750000000,-72.800003052,
,,,675.000000000,-81.599998474,
,,,676.250000000,-76.000000000,
,,,677.500000000,-70.400001526,
,,,678.750000000,-74.400001526,
,,,680.000000000,-78.400001526,
,,,681.250000000,-76.000000000,
,,,682.500000000,-73.599998474,
,,,683.750000000,-72.000000000,
,,,685.000000000,-71.200004578,
,,,686.250000000,-72.800003052,
,,,687.500000000,-74.400001526,
,,,688.750000000,-79.200004578,
,,,690.000000000,-84.800003052,
,,,691.250000000,-82.400001526,
,,,692.500000000,-79.200004578,
,,,693.750000000,-72.000000000,
,,,695.000000000,-65.599998474,
,,,696.250000000,-61.600002289,
,,,697.500000000,-57.600002289,
,,,698.750000000,-60.799999237,
,,,700.000000000,-64.000000000,
,,,701.250000000,-66.400001526,
,,,702.500000000,-69.599998474,
,,,703.750000000,-70.400001526,
,,,705.000000000,-71.200004578,
,,,706.250000000,-72.000000000,
,,,707.500000000,-72.800003052,
,,,708.750000000,-72.800003052,
,,,710.000000000,-72.000000000,
,,,711.250000000,-72.000000000,
,,,712.500000000,-72.000000000,
,,,713.750000000,-72.000000000,
,,,715.000000000,-72.000000000,
,,,716.250000000,-75.200004578,
,,,717.500000000,-79.200004578,
,,,718.750000000,-76.800003052,
,,,720.000000000,-74.400001526,
,,,721.250000000,-77.599998474,
,,,722.500000000,-80.800003052,
,,,723.750000000,-75.200004578,
,,,725.000000000,-68.800003052,
,,,726.250000000,-67.200004578,
,,,727.500000000,-66.400001526,
,,,728.750000000,-66.400001526,
,,,730.000000000,-66.400001526,
,,,731.250000000,-68.800003052,
,,,732.500000000,-71.200004578,
,,,733.750000000,-74.400001526,
,,,735.000000000,-77.599998474,
,,,736.250000000,-78.400001526,
,,,737.500000000,-78.400001526,
,,,738.750000000,-80.800003052,
,,,740.000000000,-83.200004578,
,,,741.250000000,-76.800003052,
,,,742.500000000,-71.200004578,
,,,743.750000000,-70.400001526,
,,,745.000000000,-70.400001526,
,,,746.250000000,-72.800003052,
,,,747.500000000,-74.400001526,
,,,748.750000000,-72.800003052,
,,,750.000000000,-71.200004578,
,,,751.250000000,-72.800003052,
,,,752.500000000,-73.599998474,
,,,753.750000000,-74.400001526,
,,,755.000000000,-75.200004578,
,,,756.250000000,-89.599998474,
,,,757.500000000,-104.0000000,
,,,758.750000000,-88.000000000,
,,,760.000000000,-71.200004578,
,,,761.250000000,-71.200004578,
,,,762.500000000,-71.200004578,
,,,763.750000000,-69.599998474,
,,,765.000000000,-68.800003052,
,,,766.250000000,-65.599998474,
,,,767.500000000,-62.400001526,
,,,768.750000000,-66.400001526,
,,,770.000000000,-69.599998474,
,,,771.250000000,-70.400001526,
,,,772.500000000,-72.000000000,
,,,773.750000000,-72.000000000,
,,,775.000000000,-71.200004578,
,,,776.250000000,-77.599998474,
,,,777.500000000,-83.200004578,
,,,778.750000000,-81.599998474,
,,,780.000000000,-80.000000000,
,,,781.250000000,-86.400001526,
,,,782.500000000,-92.000000000,
,,,783.750000000,-81.599998474,
,,,785.000000000,-72.000000000,
,,,786.250000000,-70.400001526,
,,,787.500000000,-69.599998474,
