TestBuild_1/Unloaded_1k_2-3k.csv

Record Length,10000,Points,0.0,-36.79999924,
Sample Interval,1.2500000,Hz,1.2500000,-38.40000153,
Trigger Point,0.0,Samples,2.5000000,-40.00000000,
,,,3.75000000,-61.600002289,
,,,5.00000000,-84.000000000,
,,,6.25000000,-79.200004578,
Source,MATH,,7.500000000,-74.400001526,
Vertical Units,dB,,8.750000000,-80.000000000,
Vertical Scale,20.0000003,,10.0000000,-85.599998474,
Vertical Offset,0,,11.2500000,-76.800003052,
Horizontal Units,Hz,,12.5000000,-68.800003052,
Horizontal Scale,1.2500001E3,,13.7500000,-71.200004578,
Pt Fmt,Y,,15.0000000,-73.599998474,
Yzero,3.00000000,,16.2500000,-74.400001526,
,,,17.5000000,-74.400001526,
,,,18.7500000,-73.599998474,
Note,MSO4054 - 10:03:48 PM   11/14/2016,,20.0000000,-72.800003052,
,,,21.25000000,-74.400001526,
,,,22.50000000,-76.000000000,
,,,23.75000000,-73.599998474,
,,,25.00000000,-71.200004578,
,,,26.25000000,-71.200004578,
,,,27.50000000,-71.200004578,
,,,28.75000000,-72.800003052,
,,,30.00000000,-74.400001526,
,,,31.25000000,-79.200004578,
,,,32.50000000,-83.200004578,
,,,33.75000000,-79.200004578,
,,,35.00000000,-74.400001526,
,,,36.25000000,-73.599998474,
,,,37.50000000,-72.800003052,
,,,38.75000000,-72.800003052,
,,,40.00000000,-72.800003052,
,,,41.25000000,-73.599998474,
,,,42.50000000,-75.200004578,
,,,43.75000000,-77.599998474,
,,,45.00000000,-79.200004578,
,,,46.25000000,-79.200004578,
,,,47.50000000,-79.200004578,
,,,48.75000000,-77.599998474,
,,,50.00000000,-76.000000000,
,,,51.25000000,-80.800003052,
,,,52.50000000,-85.599998474,
,,,53.75000000,-81.599998474,
,,,55.000000000,-78.400001526,
,,,56.250000000,-76.000000000,
,,,57.500000000,-73.599998474,
,,,58.750000000,-72.800003052,
,,,60.000000000,-72.000000000,
,,,61.250000000,-74.400001526,
,,,62.500000000,-76.000000000,
,,,63.750000000,-76.000000000,
,,,65.000000000,-76.000000000,
,,,66.250000000,-72.800003052,
,,,67.500000000,-68.800003052,
,,,68.750000000,-69.599998474,
,,,70.000000000,-70.400001526,
,,,71.250000000,-72.000000000,
,,,72.500000000,-72.800003052,
,,,73.750000000,-74.400001526,
,,,75.000000000,-75.200004578,
,,,76.250000000,-80.000000000,
,,,77.500000000,-84.800003052,
,,,78.750000000,-92.000000000,
,,,80.000000000,-98.400001526,
,,,81.250000000,-88.800003052,
,,,82.500000000,-78.400001526,
,,,83.750000000,-75.200004578,
,,,85.000000000,-71.200004578,
,,,86.250000000,-72.000000000,
,,,87.500000000,-72.000000000,
,,,88.750000000,-72.000000000,
,,,90.000000000,-72.000000000,
,,,91.250000000,-72.800003052,
,,,92.500000000,-73.599998474,
,,,93.750000000,-75.200004578,
,,,95.000000000,-76.800003052,
,,,96.250000000,-80.000000000,
,,,97.500000000,-82.400001526,
,,,98.750000000,-76.800003052,
,,,100.0000000,-72.000000000,
,,,101.2500000,-70.400001526,
,,,102.5000000,-68.800003052,
,,,103.7500000,-73.599998474,
,,,105.0000000,-79.200004578,
,,,106.2500000,-76.800003052,
,,,107.5000000,-73.599998474,
,,,108.7500000,-72.800003052,
,,,110.0000000,-71.200004578,
,,,111.2500000,-74.400001526,
,,,112.5000000,-76.800003052,
,,,113.7500000,-77.599998474,
,,,115.0000000,-79.200004578,
,,,116.2500000,-80.000000000,
,,,117.5000000,-81.599998474,
,,,118.7500000,-79.200004578,
,,,120.0000000,-77.599998474,
,,,121.2500000,-78.400001526,
,,,122.5000000,-78.400001526,
,,,123.7500000,-77.599998474,
,,,125.0000000,-76.000000000,
,,,126.2500000,-78.400001526,
,,,127.5000000,-80.000000000,
,,,128.7500000,-78.400001526,
,,,130.0000000,-76.800003052,
,,,131.2500000,-78.400001526,
,,,132.5000000,-79.200004578,
,,,133.7500000,-76.800003052,
,,,135.0000000,-73.599998474,
,,,136.2500000,-74.400001526,
,,,137.5000000,-75.200004578,
,,,138.7500000,-78.400001526,
,,,140.0000000,-80.800003052,
,,,141.2500000,-84.800003052,
,,,142.5000000,-88.800003052,
,,,143.7500000,-82.400001526,
,,,145.0000000,-75.200004578,
,,,146.2500000,-73.599998474,
,,,147.5000000,-72.000000000,
,,,148.75000000,-72.800003052,
,,,150.00000000,-73.599998474,
,,,151.25000000,-74.400001526,
,,,152.50000000,-75.200004578,
,,,153.75000000,-77.599998474,
,,,155.00000000,-79.200004578,
,,,156.25000000,-79.200004578,
,,,157.50000000,-78.400001526,
,,,158.75000000,-77.599998474,
,,,160.00000000,-76.800003052,
,,,161.25000000,-84.000000000,
,,,162.50000000,-92.000000000,
,,,163.75000000,-84.000000000,
,,,165.00000000,-76.000000000,
,,,166.25000000,-76.800003052,
,,,167.50000000,-78.400001526,
,,,168.75000000,-77.599998474,
,,,170.00000000,-76.800003052,
,,,171.25000000,-76.000000000,
,,,172.50000000,-75.200004578,
,,,173.75000000,-76.000000000,
,,,175.00000000,-76.000000000,
,,,176.25000000,-80.000000000,
,,,177.50000000,-84.800003052,
,,,178.75000000,-80.000000000,
,,,180.00000000,-75.200004578,
,,,181.25000000,-72.800003052,
,,,182.50000000,-70.400001526,
,,,183.75000000,-71.200004578,
,,,185.00000000,-72.000000000,
,,,186.25000000,-75.200004578,
,,,187.50000000,-79.200004578,
,,,188.75000000,-77.599998474,
,,,190.00000000,-76.000000000,
,,,191.25000000,-75.200004578,
,,,192.50000000,-74.400001526,
,,,193.75000000,-74.400001526,
,,,195.00000000,-73.599998474,
,,,196.25000000,-72.000000000,
,,,197.50000000,-70.400001526,
,,,198.75000000,-69.599998474,
,,,200.00000000,-68.800003052,
,,,201.25000000,-68.000000000,
,,,202.50000000,-67.200004578,
,,,203.75000000,-70.400001526,
,,,205.00000000,-73.599998474,
,,,206.25000000,-74.400001526,
,,,207.50000000,-76.000000000,
,,,208.75000000,-73.599998474,
,,,210.00000000,-71.200004578,
,,,211.25000000,-76.800003052,
,,,212.50000000,-82.400001526,
,,,213.75000000,-78.400001526,
,,,215.00000000,-74.400001526,
,,,216.25000000,-74.400001526,
,,,217.50000000,-73.599998474,
,,,218.75000000,-74.400001526,
,,,220.00000000,-74.400001526,
,,,221.25000000,-76.000000000,
,,,222.50000000,-77.599998474,
,,,223.75000000,-76.800003052,
,,,225.00000000,-75.200004578,
,,,226.25000000,-73.599998474,
,,,227.50000000,-72.800003052,
,,,228.75000000,-72.800003052,
,,,230.00000000,-72.800003052,
,,,231.25000000,-72.000000000,
,,,232.50000000,-72.000000000,
,,,233.75000000,-71.200004578,
,,,235.00000000,-71.200004578,
,,,236.25000000,-71.200004578,
,,,237.50000000,-71.200004578,
,,,238.75000000,-70.400001526,
,,,240.00000000,-68.800003052,
,,,241.25000000,-69.599998474,
,,,242.50000000,-71.200004578,
,,,243.75000000,-75.200004578,
,,,245.00000000,-79.200004578,
,,,246.25000000,-77.599998474,
,,,247.50000000,-76.000000000,
,,,248.75000000,-76.000000000,
,,,250.00000000,-76.000000000,
,,,251.25000000,-76.800003052,
,,,252.50000000,-77.599998474,
,,,253.75000000,-76.800003052,
,,,255.00000000,-76.800003052,
,,,256.25000000,-80.000000000,
,,,257.50000000,-82.400001526,
,,,258.75000000,-82.400001526,
,,,260.00000000,-82.400001526,
,,,261.25000000,-83.200004578,
,,,262.50000000,-84.000000000,
,,,263.75000000,-84.000000000,
,,,265.00000000,-83.200004578,
,,,266.25000000,-85.599998474,
,,,267.50000000,-88.000000000,
,,,268.75000000,-91.200004578,
,,,270.00000000,-94.400001526,
,,,271.25000000,-83.200004578,
,,,272.50000000,-72.800003052,
,,,273.75000000,-73.599998474,
,,,275.00000000,-73.599998474,
,,,276.25000000,-80.800003052,
,,,277.50000000,-88.800003052,
,,,278.75000000,-84.000000000,
,,,280.00000000,-80.000000000,
,,,281.25000000,-85.599998474,
,,,282.50000000,-90.400001526,
,,,283.75000000,-82.400001526,
,,,285.00000000,-73.599998474,
,,,286.25000000,-72.800003052,
,,,287.50000000,-72.800003052,
,,,288.75000000,-72.800003052,
,,,290.00000000,-73.599998474,
,,,291.25000000,-75.200004578,
,,,292.50000000,-77.599998474,
,,,293.75000000,-76.800003052,
,,,295.00000000,-76.800003052,
,,,296.25000000,-75.200004578,
,,,297.50000000,-73.599998474,
,,,298.75000000,-68.800003052,
,,,300.00000000,-64.000000000,
,,,301.25000000,-63.200000763,
,,,302.50000000,-62.400001526,
,,,303.75000000,-66.400001526,
,,,305.00000000,-70.400001526,
,,,306.25000000,-72.800003052,
,,,307.50000000,-76.000000000,
,,,308.75000000,-83.200004578,
,,,310.00000000,-90.400001526,
,,,311.25000000,-81.599998474,
,,,312.50000000,-72.800003052,
,,,313.75000000,-72.800003052,
,,,315.00000000,-72.000000000,
,,,316.25000000,-72.000000000,
,,,317.50000000,-72.800003052,
,,,318.75000000,-72.000000000,
,,,320.00000000,-72.000000000,
,,,321.25000000,-74.400001526,
,,,322.50000000,-76.800003052,
,,,323.75000000,-74.400001526,
,,,325.00000000,-72.800003052,
,,,326.25000000,-72.800003052,
,,,327.50000000,-72.000000000,
,,,328.75000000,-73.599998474,
,,,330.00000000,-75.200004578,
,,,331.25000000,-79.200004578,
,,,332.50000000,-83.200004578,
,,,333.75000000,-82.400001526,
,,,335.00000000,-82.400001526,
,,,336.25000000,-80.800003052,
,,,337.50000000,-79.200004578,
,,,338.75000000,-77.599998474,
,,,340.00000000,-76.000000000,
,,,341.25000000,-72.000000000,
,,,342.50000000,-68.000000000,
,,,343.75000000,-68.800003052,
,,,345.00000000,-68.800003052,
,,,346.25000000,-69.599998474,
,,,347.50000000,-70.400001526,
,,,348.75000000,-71.200004578,
,,,350.00000000,-72.800003052,
,,,351.25000000,-76.800003052,
,,,352.50000000,-80.000000000,
,,,353.75000000,-79.200004578,
,,,355.00000000,-78.400001526,
,,,356.25000000,-81.599998474,
,,,357.50000000,-84.800003052,
,,,358.75000000,-78.400001526,
,,,360.00000000,-71.200004578,
,,,361.25000000,-70.400001526,
,,,362.50000000,-70.400001526,
,,,363.75000000,-71.200004578,
,,,365.00000000,-72.000000000,
,,,366.25000000,-71.200004578,
,,,367.50000000,-71.200004578,
,,,368.75000000,-72.000000000,
,,,370.00000000,-72.800003052,
,,,371.25000000,-74.400001526,
,,,372.50000000,-76.000000000,
,,,373.75000000,-80.800003052,
,,,375.00000000,-85.599998474,
,,,376.25000000,-78.400001526,
,,,377.50000000,-70.400001526,
,,,378.75000000,-72.000000000,
,,,380.00000000,-72.800003052,
,,,381.25000000,-77.599998474,
,,,382.50000000,-81.599998474,
,,,383.75000000,-80.800003052,
,,,385.00000000,-79.200004578,
,,,386.25000000,-76.800003052,
,,,387.50000000,-75.200004578,
,,,388.75000000,-84.000000000,
,,,390.00000000,-93.599998474,
,,,391.25000000,-84.800003052,
,,,392.50000000,-76.000000000,
,,,393.75000000,-73.599998474,
,,,395.00000000,-71.200004578,
,,,396.25000000,-70.400001526,
,,,397.50000000,-68.800003052,
,,,398.75000000,-70.400001526,
,,,400.00000000,-71.200004578,
,,,401.25000000,-72.800003052,
,,,402.50000000,-74.400001526,
,,,403.750000000,-73.599998474,
,,,405.000000000,-72.800003052,
,,,406.250000000,-71.200004578,
,,,407.500000000,-70.400001526,
,,,408.750000000,-72.000000000,
,,,410.000000000,-73.599998474,
,,,411.250000000,-80.800003052,
,,,412.500000000,-88.800003052,
,,,413.750000000,-83.200004578,
,,,415.000000000,-77.599998474,
,,,416.250000000,-79.200004578,
,,,417.500000000,-80.800003052,
,,,418.750000000,-80.800003052,
,,,420.000000000,-80.000000000,
,,,421.250000000,-80.800003052,
,,,422.500000000,-81.599998474,
,,,423.750000000,-80.800003052,
,,,425.000000000,-80.000000000,
,,,426.250000000,-80.000000000,
,,,427.500000000,-79.200004578,
,,,428.750000000,-76.800003052,
,,,430.000000000,-74.400001526,
,,,431.250000000,-73.599998474,
,,,432.500000000,-73.599998474,
,,,433.750000000,-75.200004578,
,,,435.000000000,-76.800003052,
,,,436.250000000,-79.200004578,
,,,437.500000000,-82.400001526,
,,,438.750000000,-80.800003052,
,,,440.000000000,-80.000000000,
,,,441.250000000,-75.200004578,
,,,442.500000000,-70.400001526,
,,,443.750000000,-70.400001526,
,,,445.000000000,-70.400001526,
,,,446.250000000,-72.800003052,
,,,447.500000000,-76.000000000,
,,,448.750000000,-75.200004578,
,,,450.000000000,-73.599998474,
,,,451.250000000,-73.599998474,
,,,452.500000000,-73.599998474,
,,,453.750000000,-76.800003052,
,,,455.000000000,-80.000000000,
,,,456.250000000,-77.599998474,
,,,457.500000000,-75.200004578,
,,,458.750000000,-76.000000000,
,,,460.000000000,-76.800003052,
,,,461.250000000,-78.400001526,
,,,462.500000000,-80.000000000,
,,,463.750000000,-77.599998474,
,,,465.000000000,-76.000000000,
,,,466.250000000,-75.200004578,
,,,467.500000000,-73.599998474,
,,,468.750000000,-76.800003052,
,,,470.000000000,-79.200004578,
,,,471.250000000,-80.000000000,
,,,472.500000000,-80.800003052,
,,,473.750000000,-79.200004578,
,,,475.000000000,-78.400001526,
,,,476.250000000,-78.400001526,
,,,477.500000000,-78.400001526,
,,,478.750000000,-76.800003052,
,,,480.000000000,-75.200004578,
,,,481.250000000,-74.400001526,
,,,482.500000000,-73.599998474,
,,,483.750000000,-76.800003052,
,,,485.000000000,-80.800003052,
,,,486.250000000,-78.400001526,
,,,487.500000000,-76.800003052,
,,,488.750000000,-73.599998474,
,,,490.000000000,-70.400001526,
,,,491.250000000,-71.200004578,
,,,492.500000000,-72.000000000,
,,,493.750000000,-71.200004578,
,,,495.000000000,-69.599998474,
,,,496.250000000,-70.400001526,
,,,497.500000000,-71.200004578,
,,,498.750000000,-72.800003052,
,,,500.000000000,-74.400001526,
,,,501.250000000,-76.000000000,
,,,502.500000000,-78.400001526,
,,,503.750000000,-79.200004578,
,,,505.000000000,-80.000000000,
,,,506.250000000,-76.000000000,
,,,507.500000000,-72.800003052,
,,,508.750000000,-75.200004578,
,,,510.000000000,-78.400001526,
,,,511.250000000,-72.800003052,
,,,512.500000000,-67.200004578,
,,,513.750000000,-67.200004578,
,,,515.000000000,-67.200004578,
,,,516.250000000,-67.200004578,
,,,517.500000000,-68.000000000,
,,,518.750000000,-72.000000000,
,,,520.000000000,-75.200004578,
,,,521.250000000,-76.000000000,
,,,522.500000000,-76.800003052,
,,,523.750000000,-76.800003052,
,,,525.000000000,-77.599998474,
,,,526.250000000,-77.599998474,
,,,527.500000000,-77.599998474,
,,,528.750000000,-77.599998474,
,,,530.000000000,-77.599998474,
,,,531.250000000,-78.400001526,
,,,532.500000000,-78.400001526,
,,,533.750000000,-78.400001526,
,,,535.000000000,-77.599998474,
,,,536.250000000,-76.800003052,
,,,537.500000000,-76.000000000,
,,,538.750000000,-76.000000000,
,,,540.000000000,-76.000000000,
,,,541.250000000,-75.200004578,
,,,542.500000000,-74.400001526,
,,,543.750000000,-73.599998474,
,,,545.000000000,-72.000000000,
,,,546.250000000,-75.200004578,
,,,547.500000000,-79.200004578,
,,,548.750000000,-78.400001526,
,,,550.000000000,-78.400001526,
,,,551.250000000,-80.800003052,
,,,552.500000000,-84.000000000,
,,,553.750000000,-80.000000000,
,,,555.000000000,-75.200004578,
,,,556.250000000,-76.000000000,
,,,557.500000000,-76.800003052,
,,,558.750000000,-74.400001526,
,,,560.000000000,-71.200004578,
,,,561.250000000,-76.800003052,
,,,562.500000000,-81.599998474,
,,,563.750000000,-76.800003052,
,,,565.000000000,-71.200004578,
,,,566.250000000,-72.800003052,
,,,567.500000000,-74.400001526,
,,,568.750000000,-74.400001526,
,,,570.000000000,-74.400001526,
,,,571.250000000,-72.800003052,
,,,572.500000000,-70.400001526,
,,,573.750000000,-70.400001526,
,,,575.000000000,-70.400001526,
,,,576.250000000,-72.800003052,
,,,577.500000000,-74.400001526,
,,,578.750000000,-74.400001526,
,,,580.000000000,-75.200004578,
,,,581.250000000,-75.200004578,
,,,582.500000000,-75.200004578,
,,,583.750000000,-72.800003052,
,,,585.000000000,-70.400001526,
,,,586.250000000,-71.200004578,
,,,587.500000000,-72.800003052,
,,,588.750000000,-78.400001526,
,,,590.000000000,-84.000000000,
,,,591.250000000,-79.200004578,
,,,592.500000000,-74.400001526,
,,,593.750000000,-75.200004578,
,,,595.000000000,-76.800003052,
,,,596.250000000,-80.000000000,
,,,597.500000000,-84.000000000,
,,,598.750000000,-80.000000000,
,,,600.000000000,-76.000000000,
,,,601.250000000,-73.599998474,
,,,602.500000000,-72.000000000,
,,,603.750000000,-73.599998474,
,,,605.000000000,-76.000000000,
,,,606.250000000,-76.800003052,
,,,607.500000000,-76.800003052,
,,,608.750000000,-75.200004578,
,,,610.000000000,-73.599998474,
,,,611.250000000,-73.599998474,
,,,612.500000000,-74.400001526,
,,,613.750000000,-73.599998474,
,,,615.000000000,-72.800003052,
,,,616.250000000,-74.400001526,
,,,617.500000000,-76.800003052,
,,,618.750000000,-78.400001526,
,,,620.000000000,-79.200004578,
,,,621.250000000,-86.400001526,
,,,622.500000000,-92.800003052,
,,,623.750000000,-84.800003052,
,,,625.000000000,-76.000000000,
,,,626.250000000,-74.400001526,
,,,627.500000000,-72.800003052,
,,,628.750000000,-82.400001526,
,,,630.000000000,-91.200004578,
,,,631.250000000,-81.599998474,
,,,632.500000000,-71.200004578,
,,,633.750000000,-72.800003052,
,,,635.000000000,-74.400001526,
,,,636.250000000,-75.200004578,
,,,637.500000000,-76.000000000,
,,,638.750000000,-77.599998474,
,,,640.000000000,-78.400001526,
,,,641.250000000,-80.800003052,
,,,642.500000000,-82.400001526,
,,,643.750000000,-77.599998474,
,,,645.000000000,-72.000000000,
,,,646.250000000,-73.599998474,
,,,647.500000000,-76.000000000,
,,,648.750000000,-79.200004578,
,,,650.000000000,-82.400001526,
,,,651.250000000,-78.400001526,
,,,652.500000000,-73.599998474,
,,,653.750000000,-72.000000000,
,,,655.000000000,-70.400001526,
,,,656.250000000,-70.400001526,
,,,657.500000000,-70.400001526,
,,,658.750000000,-72.800003052,
,,,660.000000000,-75.200004578,
,,,661.250000000,-82.400001526,
,,,662.500000000,-90.400001526,
,,,663.750000000,-84.000000000,
,,,665.000000000,-78.400001526,
,,,666.250000000,-78.400001526,
,,,667.500000000,-79.200004578,
,,,668.750000000,-80.000000000,
,,,670.000000000,-80.800003052,
,,,671.250000000,-76.000000000,
,,,672.500000000,-72.000000000,
,,,673.750000000,-67.200004578,
,,,675.000000000,-62.400001526,
,,,676.250000000,-62.400001526,
,,,677.500000000,-62.400001526,
,,,678.750000000,-68.000000000,
,,,680.000000000,-72.800003052,
,,,681.250000000,-75.200004578,
,,,682.500000000,-78.400001526,
,,,683.750000000,-76.800003052,
,,,685.000000000,-75.200004578,
,,,686.250000000,-74.400001526,
,,,687.500000000,-74.400001526,
,,,688.750000000,-72.800003052,
,,,690.000000000,-72.000000000,
,,,691.250000000,-76.800003052,
,,,692.500000000,-81.599998474,
,,,693.750000000,-75.200004578,
,,,695.000000000,-69.599998474,
,,,696.250000000,-65.599998474,
,,,697.500000000,-60.799999237,
,,,698.750000000,-61.600002289,
,,,700.000000000,-63.200000763,
,,,701.250000000,-66.400001526,
,,,702.500000000,-69.599998474,
,,,703.750000000,-76.000000000,
,,,705.000000000,-82.400001526,
,,,706.250000000,-83.200004578,
,,,707.500000000,-84.000000000,
,,,708.750000000,-83.200004578,
,,,710.000000000,-82.400001526,
,,,711.250000000,-80.000000000,
,,,712.500000000,-77.599998474,
,,,713.750000000,-77.599998474,
,,,715.000000000,-77.599998474,
,,,716.250000000,-76.000000000,
,,,717.500000000,-75.200004578,
,,,718.750000000,-74.400001526,
,,,720.000000000,-73.599998474,
,,,721.250000000,-72.800003052,
,,,722.500000000,-71.200004578,
,,,723.750000000,-74.400001526,
,,,725.000000000,-76.800003052,
,,,726.250000000,-77.599998474,
,,,727.500000000,-79.200004578,
,,,728.750000000,-76.000000000,
,,,730.000000000,-72.800003052,
,,,731.250000000,-75.200004578,
,,,732.500000000,-78.400001526,
,,,733.750000000,-80.000000000,
,,,735.000000000,-80.800003052,
,,,736.250000000,-76.800003052,
,,,737.500000000,-72.800003052,
,,,738.750000000,-76.000000000,
,,,740.000000000,-80.000000000,
,,,741.250000000,-79.200004578,
,,,742.500000000,-79.200004578,
,,,743.750000000,-79.200004578,
,,,745.000000000,-79.200004578,
,,,746.250000000,-81.599998474,
,,,747.500000000,-84.800003052,
,,,748.750000000,-85.599998474,
,,,750.000000000,-86.400001526,
,,,751.250000000,-82.400001526,
,,,752.500000000,-79.200004578,
,,,753.750000000,-81.599998474,
,,,755.000000000,-83.200004578,
,,,756.250000000,-78.400001526,
,,,757.500000000,-73.599998474,
,,,758.750000000,-73.599998474,
,,,760.000000000,-74.400001526,
,,,761.250000000,-74.400001526,
,,,762.500000000,-75.200004578,
,,,763.750000000,-78.400001526,
,,,765.000000000,-81.599998474,
,,,766.250000000,-77.599998474,
,,,767.500000000,-73.599998474,
,,,768.750000000,-77.599998474,
,,,770.000000000,-80.800003052,
,,,771.250000000,-81.599998474,
,,,772.500000000,-82.400001526,
,,,773.750000000,-81.599998474,
,,,775.000000000,-80.800003052,
,,,776.250000000,-80.800003052,
,,,777.500000000,-80.800003052,
,,,778.750000000,-80.000000000,
,,,780.000000000,-79.200004578,
,,,781.250000000,-78.400001526,
,,,782.500000000,-77.599998474,
,,,783.750000000,-77.599998474,
,,,785.000000000,-76.800003052,
,,,786.250000000,-75.200004578,
